The bot that makes history
…
What was happening on that day it uncurrented 45 pages?

In [5]:

most_active_day <- yapperbot %>% 
  group_by(date) %>% 
  summarise(count = n()) %>% 
  slice_max(count, n=1)

yapperbot %>% 
  filter(date == most_active_day$date) %>% 
  select(pageid, title, timestamp)

# A tibble: 45 × 3
     pageid title                                            timestamp          
      <dbl> <chr>                                            <dttm>             
 1 63362621 COVID-19 pandemic in Ethiopia                    2020-10-21 23:00:28
 2 63431783 COVID-19 pandemic in Northern Ireland            2020-10-21 22:00:48
 3 63181042 COVID-19 pandemic in Europe                      2020-10-21 22:00:41
 4 63178596 COVID-19 pandemic in Hong Kong                   2020-10-21 22:00:38
 5 63313047 COVID-19 pandemic in Moldova                     2020-10-21 21:00:43
 6 63239190 COVID-19 pandemic in Sweden                      2020-10-21 21:00:37
 7 64307024 Timeline of the COVID-19 pandemic in October 20… 2020-10-21 20:00:49
 8 63395521 COVID-19 pandemic in Sarawak                     2020-10-21 20:00:45
 9 63391509 COVID-19 pandemic in Quebec                      2020-10-21 20:00:39
10 63389195 COVID-19 pandemic in Sabah                       2020-10-21 20:00:36
# ℹ 35 more rows
…
